{
  "info": {
    "_postman_id": "17576541-b821-4150-8a2d-b3cd276f05c4",
    "name": "Postman Jsonplaceholder Test Collection",
    "schema": "https://schema.getpostman.com/json/collection/v2.0.0/collection.json"
  },
  "item": [
    {
      "name": "GET Request",
      "id": "d643bc92-aa2f-4be4-8988-46b61567b57a",
      "protocolProfileBehavior": {
        "disableBodyPruning": true
      },
      "request": {
        "method": "GET",
        "header": [],
        "url": "https://jsonplaceholder.typicode.com/users"
      },
      "response": [
        {
          "id": "41d1d0c4-6c5b-4e8b-a6eb-9a65b1f92f15",
          "name": "GET Request",
          "originalRequest": {
            "method": "GET",
            "header": [],
            "url": "https://jsonplaceholder.typicode.com/users"
          },
          "status": "OK",
          "code": 200,
          "_postman_previewlanguage": "json",
          "header": [
            {
              "key": "Date",
              "value": "Sun, 06 Mar 2022 21:21:41 GMT"
            },
            {
              "key": "Content-Type",
              "value": "application/json; charset=utf-8"
            },
            {
              "key": "Transfer-Encoding",
              "value": "chunked"
            },
            {
              "key": "Connection",
              "value": "keep-alive"
            },
            {
              "key": "x-powered-by",
              "value": "Express"
            },
            {
              "key": "x-ratelimit-limit",
              "value": "1000"
            },
            {
              "key": "x-ratelimit-remaining",
              "value": "999"
            },
            {
              "key": "x-ratelimit-reset",
              "value": "1644006028"
            },
            {
              "key": "vary",
              "value": "Origin, Accept-Encoding"
            },
            {
              "key": "access-control-allow-credentials",
              "value": "true"
            },
            {
              "key": "cache-control",
              "value": "max-age=43200"
            },
            {
              "key": "pragma",
              "value": "no-cache"
            },
            {
              "key": "expires",
              "value": "-1"
            },
            {
              "key": "x-content-type-options",
              "value": "nosniff"
            },
            {
              "key": "etag",
              "value": "W/\"160d-1eMSsxeJRfnVLRBmYJSbCiJZ1qQ\""
            },
            {
              "key": "via",
              "value": "1.1 vegur"
            },
            {
              "key": "CF-Cache-Status",
              "value": "HIT"
            },
            {
              "key": "Age",
              "value": "22363"
            },
            {
              "key": "Expect-CT",
              "value": "max-age=604800, report-uri=\"https://report-uri.cloudflare.com/cdn-cgi/beacon/expect-ct\""
            },
            {
              "key": "Report-To",
              "value": "{\"endpoints\":[{\"url\":\"https:\\/\\/a.nel.cloudflare.com\\/report\\/v3?s=W5rwqHKWkkZuCSrAIGqv8UemF9DfU7f9Ln9fIQjUpygydVKIIjisWyI62XVfH4nqtkdG%2Fy4UfYiRyltACxj8poYvYMLzo34HhiVV1ovkWv%2Bux3V5XxIHXkZ0SyiB1TI93O%2BQCgF9171hRi0JmJ7i\"}],\"group\":\"cf-nel\",\"max_age\":604800}"
            },
            {
              "key": "NEL",
              "value": "{\"success_fraction\":0,\"report_to\":\"cf-nel\",\"max_age\":604800}"
            },
            {
              "key": "Server",
              "value": "cloudflare"
            },
            {
              "key": "CF-RAY",
              "value": "6e7e247ae8bb5a6f-IAD"
            },
            {
              "key": "Content-Encoding",
              "value": "br"
            },
            {
              "key": "alt-svc",
              "value": "h3=\":443\"; ma=86400, h3-29=\":443\"; ma=86400"
            }
          ],
          "cookie": [],
          "responseTime": null,
          "body": "[\n    {\n        \"id\": 1,\n        \"name\": \"Leanne Graham\",\n        \"username\": \"Bret\",\n        \"email\": \"Sincere@april.biz\",\n        \"address\": {\n            \"street\": \"Kulas Light\",\n            \"suite\": \"Apt. 556\",\n            \"city\": \"Gwenborough\",\n            \"zipcode\": \"92998-3874\",\n            \"geo\": {\n                \"lat\": \"-37.3159\",\n                \"lng\": \"81.1496\"\n            }\n        },\n        \"phone\": \"1-770-736-8031 x56442\",\n        \"website\": \"hildegard.org\",\n        \"company\": {\n            \"name\": \"Romaguera-Crona\",\n            \"catchPhrase\": \"Multi-layered client-server neural-net\",\n            \"bs\": \"harness real-time e-markets\"\n        }\n    },\n    {\n        \"id\": 2,\n        \"name\": \"Ervin Howell\",\n        \"username\": \"Antonette\",\n        \"email\": \"Shanna@melissa.tv\",\n        \"address\": {\n            \"street\": \"Victor Plains\",\n            \"suite\": \"Suite 879\",\n            \"city\": \"Wisokyburgh\",\n            \"zipcode\": \"90566-7771\",\n            \"geo\": {\n                \"lat\": \"-43.9509\",\n                \"lng\": \"-34.4618\"\n            }\n        },\n        \"phone\": \"010-692-6593 x09125\",\n        \"website\": \"anastasia.net\",\n        \"company\": {\n            \"name\": \"Deckow-Crist\",\n            \"catchPhrase\": \"Proactive didactic contingency\",\n            \"bs\": \"synergize scalable supply-chains\"\n        }\n    },\n    {\n        \"id\": 3,\n        \"name\": \"Clementine Bauch\",\n        \"username\": \"Samantha\",\n        \"email\": \"Nathan@yesenia.net\",\n        \"address\": {\n            \"street\": \"Douglas Extension\",\n            \"suite\": \"Suite 847\",\n            \"city\": \"McKenziehaven\",\n            \"zipcode\": \"59590-4157\",\n            \"geo\": {\n                \"lat\": \"-68.6102\",\n                \"lng\": \"-47.0653\"\n            }\n        },\n        \"phone\": \"1-463-123-4447\",\n        \"website\": \"ramiro.info\",\n        \"company\": {\n            \"name\": \"Romaguera-Jacobson\",\n            \"catchPhrase\": \"Face to face bifurcated interface\",\n            \"bs\": \"e-enable strategic applications\"\n        }\n    },\n    {\n        \"id\": 4,\n        \"name\": \"Patricia Lebsack\",\n        \"username\": \"Karianne\",\n        \"email\": \"Julianne.OConner@kory.org\",\n        \"address\": {\n            \"street\": \"Hoeger Mall\",\n            \"suite\": \"Apt. 692\",\n            \"city\": \"South Elvis\",\n            \"zipcode\": \"53919-4257\",\n            \"geo\": {\n                \"lat\": \"29.4572\",\n                \"lng\": \"-164.2990\"\n            }\n        },\n        \"phone\": \"493-170-9623 x156\",\n        \"website\": \"kale.biz\",\n        \"company\": {\n            \"name\": \"Robel-Corkery\",\n            \"catchPhrase\": \"Multi-tiered zero tolerance productivity\",\n            \"bs\": \"transition cutting-edge web services\"\n        }\n    },\n    {\n        \"id\": 5,\n        \"name\": \"Chelsey Dietrich\",\n        \"username\": \"Kamren\",\n        \"email\": \"Lucio_Hettinger@annie.ca\",\n        \"address\": {\n            \"street\": \"Skiles Walks\",\n            \"suite\": \"Suite 351\",\n            \"city\": \"Roscoeview\",\n            \"zipcode\": \"33263\",\n            \"geo\": {\n                \"lat\": \"-31.8129\",\n                \"lng\": \"62.5342\"\n            }\n        },\n        \"phone\": \"(254)954-1289\",\n        \"website\": \"demarco.info\",\n        \"company\": {\n            \"name\": \"Keebler LLC\",\n            \"catchPhrase\": \"User-centric fault-tolerant solution\",\n            \"bs\": \"revolutionize end-to-end systems\"\n        }\n    },\n    {\n        \"id\": 6,\n        \"name\": \"Mrs. Dennis Schulist\",\n        \"username\": \"Leopoldo_Corkery\",\n        \"email\": \"Karley_Dach@jasper.info\",\n        \"address\": {\n            \"street\": \"Norberto Crossing\",\n            \"suite\": \"Apt. 950\",\n            \"city\": \"South Christy\",\n            \"zipcode\": \"23505-1337\",\n            \"geo\": {\n                \"lat\": \"-71.4197\",\n                \"lng\": \"71.7478\"\n            }\n        },\n        \"phone\": \"1-477-935-8478 x6430\",\n        \"website\": \"ola.org\",\n        \"company\": {\n            \"name\": \"Considine-Lockman\",\n            \"catchPhrase\": \"Synchronised bottom-line interface\",\n            \"bs\": \"e-enable innovative applications\"\n        }\n    },\n    {\n        \"id\": 7,\n        \"name\": \"Kurtis Weissnat\",\n        \"username\": \"Elwyn.Skiles\",\n        \"email\": \"Telly.Hoeger@billy.biz\",\n        \"address\": {\n            \"street\": \"Rex Trail\",\n            \"suite\": \"Suite 280\",\n            \"city\": \"Howemouth\",\n            \"zipcode\": \"58804-1099\",\n            \"geo\": {\n                \"lat\": \"24.8918\",\n                \"lng\": \"21.8984\"\n            }\n        },\n        \"phone\": \"210.067.6132\",\n        \"website\": \"elvis.io\",\n        \"company\": {\n            \"name\": \"Johns Group\",\n            \"catchPhrase\": \"Configurable multimedia task-force\",\n            \"bs\": \"generate enterprise e-tailers\"\n        }\n    },\n    {\n        \"id\": 8,\n        \"name\": \"Nicholas Runolfsdottir V\",\n        \"username\": \"Maxime_Nienow\",\n        \"email\": \"Sherwood@rosamond.me\",\n        \"address\": {\n            \"street\": \"Ellsworth Summit\",\n            \"suite\": \"Suite 729\",\n            \"city\": \"Aliyaview\",\n            \"zipcode\": \"45169\",\n            \"geo\": {\n                \"lat\": \"-14.3990\",\n                \"lng\": \"-120.7677\"\n            }\n        },\n        \"phone\": \"586.493.6943 x140\",\n        \"website\": \"jacynthe.com\",\n        \"company\": {\n            \"name\": \"Abernathy Group\",\n            \"catchPhrase\": \"Implemented secondary concept\",\n            \"bs\": \"e-enable extensible e-tailers\"\n        }\n    },\n    {\n        \"id\": 9,\n        \"name\": \"Glenna Reichert\",\n        \"username\": \"Delphine\",\n        \"email\": \"Chaim_McDermott@dana.io\",\n        \"address\": {\n            \"street\": \"Dayna Park\",\n            \"suite\": \"Suite 449\",\n            \"city\": \"Bartholomebury\",\n            \"zipcode\": \"76495-3109\",\n            \"geo\": {\n                \"lat\": \"24.6463\",\n                \"lng\": \"-168.8889\"\n            }\n        },\n        \"phone\": \"(775)976-6794 x41206\",\n        \"website\": \"conrad.com\",\n        \"company\": {\n            \"name\": \"Yost and Sons\",\n            \"catchPhrase\": \"Switchable contextually-based project\",\n            \"bs\": \"aggregate real-time technologies\"\n        }\n    },\n    {\n        \"id\": 10,\n        \"name\": \"Clementina DuBuque\",\n        \"username\": \"Moriah.Stanton\",\n        \"email\": \"Rey.Padberg@karina.biz\",\n        \"address\": {\n            \"street\": \"Kattie Turnpike\",\n            \"suite\": \"Suite 198\",\n            \"city\": \"Lebsackbury\",\n            \"zipcode\": \"31428-2261\",\n            \"geo\": {\n                \"lat\": \"-38.2386\",\n                \"lng\": \"57.2232\"\n            }\n        },\n        \"phone\": \"024-648-3804\",\n        \"website\": \"ambrose.net\",\n        \"company\": {\n            \"name\": \"Hoeger LLC\",\n            \"catchPhrase\": \"Centralized empowering task-force\",\n            \"bs\": \"target end-to-end models\"\n        }\n    }\n]"
        }
      ]
    },
    {
      "name": "GET Request with params",
      "id": "9e705ba1-e7df-416f-a8a5-5f69e05a65a7",
      "protocolProfileBehavior": {
        "disableBodyPruning": true
      },
      "request": {
        "method": "GET",
        "header": [],
        "url": "{{url}}/users"
      },
      "response": []
    },
    {
      "name": "GET Request with params Test",
      "event": [
        {
          "listen": "test",
          "script": {
            "id": "43923866-40b6-4b8d-a615-b4db473ca47c",
            "exec": [
              "pm.test(\"Status code is 200\", function () {\r",
              "    pm.response.to.have.status(200);\r",
              "});\r",
              "\r",
              "pm.test(\"Check if user Clementina DuBuque has id10\", function () {\r",
              "    var jsonData = pm.response.json();\r",
              "    pm.expect(jsonData[9].name).to.eql(\"Clementina DuBuque\");\r",
              "});\r",
              "\r",
              "pm.test(\"Check if user Clementina DuBuque username is Moriah.Stanton\", function () {\r",
              "    var jsonData = pm.response.json();\r",
              "    var username = jsonData[0].name\r",
              "    pm.expect(jsonData[9].username).to.eql(\"Moriah.Stanton\");\r",
              "});\r",
              ""
            ],
            "type": "text/javascript"
          }
        }
      ],
      "id": "9674321c-abef-4a08-b554-370f2116219c",
      "protocolProfileBehavior": {
        "disableBodyPruning": true
      },
      "request": {
        "method": "GET",
        "header": [],
        "url": "{{url}}/users"
      },
      "response": []
    },
    {
      "name": "POST Request",
      "id": "217a6c2c-37ca-482a-8a1e-1e5aaa969ee3",
      "protocolProfileBehavior": {
        "disableBodyPruning": true
      },
      "request": {
        "method": "POST",
        "header": [],
        "body": {
          "mode": "raw",
          "raw": "{\r\n        \"id\": 11,\r\n        \"name\": \"Clementine Bauch Jnr\",\r\n        \"username\": \"Samantha\",\r\n        \"email\": \"NathanJRN@yesenia.net\",\r\n        \"address\": {\r\n            \"street\": \"Douglas Extension\",\r\n            \"suite\": \"Suite 847\",\r\n            \"city\": \"McKenziehaven\",\r\n            \"zipcode\": \"59590-4157\",\r\n            \"geo\": {\r\n                \"lat\": \"-68.6102\",\r\n                \"lng\": \"-47.0653\"\r\n            }\r\n        },\r\n        \"phone\": \"1-463-123-4448\",\r\n        \"website\": \"ramiro.info\",\r\n        \"company\": {\r\n            \"name\": \"Romaguera-Jacobson\",\r\n            \"catchPhrase\": \"Face to face bifurcated interface\",\r\n            \"bs\": \"e-enable strategic applications\"\r\n        }\r\n    }",
          "options": {
            "raw": {
              "language": "json"
            }
          }
        },
        "url": "https://jsonplaceholder.typicode.com/users"
      },
      "response": []
    }
  ]
}